{
  "$jason":
  {
    "head":
    {
      "actions":
      {
        "@": "https://about.brandonmlyon.com/mobile/config.json"
      },
      "data":
      {},
      "templates":
      {
        "body":
        {
          "header":
          {
            "style":
            {
              "shy": "true"
            },
            "title": "{{$get.defaultTitle || ''}}"
          },
          "footer":
          {
            "@": "https://about.brandonmlyon.com/mobile/footer.json"
          }
        }
      }
    }
  }
}
